%YAML 1.1
%TAG !u! tag:unity3d.com,2011:
--- !u!74 &7400000
AnimationClip:
  m_ObjectHideFlags: 0
  m_PrefabParentObject: {fileID: 0}
  m_PrefabInternal: {fileID: 0}
  m_Name: BinOpen
  serializedVersion: 6
  m_Legacy: 1
  m_Compressed: 0
  m_UseHighQualityCurve: 1
  m_RotationCurves:
  - curve:
      serializedVersion: 2
      m_Curve:
      - serializedVersion: 2
        time: 0
        value: {x: 1, y: -0.00000016292068, z: -0.00000016292068, w: 2.654315e-14}
        inSlope: {x: -0.018339155, y: -0.00000023868523, z: -0.00000023868523, w: -1.4833786}
        outSlope: {x: -0.018339155, y: -0.00000023868523, z: -0.00000023868523, w: -1.4833786}
        tangentMode: -559038745
      - serializedVersion: 2
        time: 0.31666672
        value: {x: 0.8916659, y: -0.00000021902406, z: -0.00000021902406, w: -0.45269418}
        inSlope: {x: -0.67151725, y: -0.00000010608764, z: -0.000000106087214, w: -1.3226776}
        outSlope: {x: -0.67151725, y: -0.00000010608764, z: -0.000000106087214, w: -1.3226776}
        tangentMode: -559038745
      - serializedVersion: 2
        time: 0.5
        value: {x: 0.7372773, y: -0.00000023018534, z: -0.00000023018535, w: -0.67559016}
        inSlope: {x: -0.98863447, y: -0.000000019128603, z: -0.000000019129455, w: -1.106045}
        outSlope: {x: -0.98863447, y: -0.000000019128603, z: -0.000000019129455, w: -1.106045}
        tangentMode: -559038745
      m_PreInfinity: 2
      m_PostInfinity: 2
      m_RotationOrder: 4
    path: 3D_housework_dustbin_top
  m_CompressedRotationCurves: []
  m_EulerCurves: []
  m_PositionCurves: []
  m_ScaleCurves: []
  m_FloatCurves: []
  m_PPtrCurves: []
  m_SampleRate: 60
  m_WrapMode: 0
  m_Bounds:
    m_Center: {x: 0, y: 0, z: 0}
    m_Extent: {x: 0, y: 0, z: 0}
  m_ClipBindingConstant:
    genericBindings: []
    pptrCurveMapping: []
  m_AnimationClipSettings:
    serializedVersion: 2
    m_AdditiveReferencePoseClip: {fileID: 0}
    m_AdditiveReferencePoseTime: 0
    m_StartTime: 0
    m_StopTime: 0.5
    m_OrientationOffsetY: 0
    m_Level: 0
    m_CycleOffset: 0
    m_HasAdditiveReferencePose: 0
    m_LoopTime: 0
    m_LoopBlend: 0
    m_LoopBlendOrientation: 0
    m_LoopBlendPositionY: 0
    m_LoopBlendPositionXZ: 0
    m_KeepOriginalOrientation: 0
    m_KeepOriginalPositionY: 1
    m_KeepOriginalPositionXZ: 0
    m_HeightFromFeet: 0
    m_Mirror: 0
  m_EditorCurves:
  - curve:
      serializedVersion: 2
      m_Curve:
      - serializedVersion: 2
        time: 0
        value: 1
        inSlope: -0.018339155
        outSlope: -0.018339155
        tangentMode: 0
      - serializedVersion: 2
        time: 0.31666672
        value: 0.8916659
        inSlope: -0.67151725
        outSlope: -0.67151725
        tangentMode: 0
      - serializedVersion: 2
        time: 0.5
        value: 0.7372773
        inSlope: -0.98863447
        outSlope: -0.98863447
        tangentMode: 0
      m_PreInfinity: 2
      m_PostInfinity: 2
      m_RotationOrder: 4
    attribute: m_LocalRotation.x
    path: 3D_housework_dustbin_top
    classID: 4
    script: {fileID: 0}
  - curve:
      serializedVersion: 2
      m_Curve:
      - serializedVersion: 2
        time: 0
        value: -0.00000016292068
        inSlope: -0.00000023868523
        outSlope: -0.00000023868523
        tangentMode: 0
      - serializedVersion: 2
        time: 0.31666672
        value: -0.00000021902406
        inSlope: -0.00000010608764
        outSlope: -0.00000010608764
        tangentMode: 0
      - serializedVersion: 2
        time: 0.5
        value: -0.00000023018534
        inSlope: -0.000000019128603
        outSlope: -0.000000019128603
        tangentMode: 0
      m_PreInfinity: 2
      m_PostInfinity: 2
      m_RotationOrder: 4
    attribute: m_LocalRotation.y
    path: 3D_housework_dustbin_top
    classID: 4
    script: {fileID: 0}
  - curve:
      serializedVersion: 2
      m_Curve:
      - serializedVersion: 2
        time: 0
        value: -0.00000016292068
        inSlope: -0.00000023868523
        outSlope: -0.00000023868523
        tangentMode: 0
      - serializedVersion: 2
        time: 0.31666672
        value: -0.00000021902406
        inSlope: -0.000000106087214
        outSlope: -0.000000106087214
        tangentMode: 0
      - serializedVersion: 2
        time: 0.5
        value: -0.00000023018535
        inSlope: -0.000000019129455
        outSlope: -0.000000019129455
        tangentMode: 0
      m_PreInfinity: 2
      m_PostInfinity: 2
      m_RotationOrder: 4
    attribute: m_LocalRotation.z
    path: 3D_housework_dustbin_top
    classID: 4
    script: {fileID: 0}
  - curve:
      serializedVersion: 2
      m_Curve:
      - serializedVersion: 2
        time: 0
        value: 2.654315e-14
        inSlope: -1.4833786
        outSlope: -1.4833786
        tangentMode: 0
      - serializedVersion: 2
        time: 0.31666672
        value: -0.45269418
        inSlope: -1.3226776
        outSlope: -1.3226776
        tangentMode: 0
      - serializedVersion: 2
        time: 0.5
        value: -0.67559016
        inSlope: -1.106045
        outSlope: -1.106045
        tangentMode: 0
      m_PreInfinity: 2
      m_PostInfinity: 2
      m_RotationOrder: 4
    attribute: m_LocalRotation.w
    path: 3D_housework_dustbin_top
    classID: 4
    script: {fileID: 0}
  m_EulerEditorCurves:
  - curve:
      serializedVersion: 2
      m_Curve:
      - serializedVersion: 2
        time: 0
        value: 0
        inSlope: -170
        outSlope: -170
        tangentMode: 34
      - serializedVersion: 2
        time: 0.5
        value: -85
        inSlope: -170
        outSlope: -170
        tangentMode: 34
      m_PreInfinity: 2
      m_PostInfinity: 2
      m_RotationOrder: 4
    attribute: localEulerAnglesBaked.x
    path: 3D_housework_dustbin_top
    classID: 4
    script: {fileID: 0}
  - curve:
      serializedVersion: 2
      m_Curve:
      - serializedVersion: 2
        time: 0
        value: 180.00002
        inSlope: 4.6902006e-35
        outSlope: 3.205599e-39
        tangentMode: 34
      m_PreInfinity: 2
      m_PostInfinity: 2
      m_RotationOrder: 4
    attribute: localEulerAnglesBaked.y
    path: 3D_housework_dustbin_top
    classID: 4
    script: {fileID: 0}
  - curve:
      serializedVersion: 2
      m_Curve:
      - serializedVersion: 2
        time: 0
        value: 180.00002
        inSlope: 4.2085108e-35
        outSlope: 3.205599e-39
        tangentMode: 34
      m_PreInfinity: 2
      m_PostInfinity: 2
      m_RotationOrder: 4
    attribute: localEulerAnglesBaked.z
    path: 3D_housework_dustbin_top
    classID: 4
    script: {fileID: 0}
  m_HasGenericRootTransform: 0
  m_HasMotionFloatCurves: 0
  m_GenerateMotionCurves: 0
  m_Events:
  - time: 0.5
    functionName: OnOpened
    data: 
    objectReferenceParameter: {fileID: 0}
    floatParameter: 0
    intParameter: 0
    messageOptions: 0
