%YAML 1.1
%TAG !u! tag:unity3d.com,2011:
--- !u!74 &7400000
AnimationClip:
  m_ObjectHideFlags: 0
  m_PrefabParentObject: {fileID: 0}
  m_PrefabInternal: {fileID: 0}
  m_Name: BinRollIn
  serializedVersion: 6
  m_Legacy: 1
  m_Compressed: 0
  m_UseHighQualityCurve: 1
  m_RotationCurves:
  - curve:
      serializedVersion: 2
      m_Curve:
      - serializedVersion: 2
        time: 0
        value: {x: 0.17364818, y: 0, z: 0, w: 0.9848077}
        inSlope: {x: 0, y: 0, z: 0, w: 0}
        outSlope: {x: 0, y: 0, z: 0, w: 0}
        tangentMode: 0
      - serializedVersion: 2
        time: 0.8333332
        value: {x: 0.17364818, y: 0, z: 0, w: 0.9848077}
        inSlope: {x: 0, y: 0, z: 0, w: 0}
        outSlope: {x: 0, y: 0, z: 0, w: 0}
        tangentMode: 0
      - serializedVersion: 2
        time: 1.4833326
        value: {x: 0.17364818, y: 0, z: 0, w: 0.9848077}
        inSlope: {x: 0, y: 0, z: 0, w: 0}
        outSlope: {x: 0, y: 0, z: 0, w: 0}
        tangentMode: 0
      - serializedVersion: 2
        time: 1.4999993
        value: {x: 0.17364818, y: 0, z: 0, w: 0.9848077}
        inSlope: {x: -0.0026661183, y: -0.9451457, z: 0.1666547, w: -0.015122308}
        outSlope: {x: -0.0026661183, y: -0.9451457, z: 0.1666547, w: -0.015122308}
        tangentMode: 0
      - serializedVersion: 2
        time: 1.5333326
        value: {x: 0.17329273, y: -0.06297875, z: 0.011104853, w: 0.9827919}
        inSlope: {x: -0.02131643, y: -1.886503, z: 0.33264136, w: -0.120890856}
        outSlope: {x: -0.02131643, y: -1.886503, z: 0.33264136, w: -0.120890856}
        tangentMode: 0
      - serializedVersion: 2
        time: 1.749999
        value: {x: 0.1635473, y: -0.45383036, z: 0.085136965, w: 0.8718039}
        inSlope: {x: -0.05353292, y: -1.6629219, z: 0.37021068, w: -0.8917066}
        outSlope: {x: -0.05353292, y: -1.6629219, z: 0.37021068, w: -0.8917066}
        tangentMode: 0
      - serializedVersion: 2
        time: 1.8999989
        value: {x: 0.08417635, y: -0.68988436, z: 0.0812878, w: 0.7143992}
        inSlope: {x: -0.94395965, y: -1.460416, z: -0.60121083, w: -1.2317467}
        outSlope: {x: -0.94395965, y: -1.460416, z: -0.60121083, w: -1.2317467}
        tangentMode: 0
      - serializedVersion: 2
        time: 2
        value: {x: 0, y: -0.81915206, z: 0, w: 0.57357645}
        inSlope: {x: -0.65600145, y: -1.1341511, z: -0.8758283, w: -1.5487877}
        outSlope: {x: -0.65600145, y: -1.1341511, z: -0.8758283, w: -1.5487877}
        tangentMode: 0
      m_PreInfinity: 2
      m_PostInfinity: 2
      m_RotationOrder: 4
    path: FoodBin
  - curve:
      serializedVersion: 2
      m_Curve:
      - serializedVersion: 2
        time: 0
        value: {x: 0.17364818, y: 0, z: 0, w: 0.9848077}
        inSlope: {x: 0, y: 0, z: 0, w: 0}
        outSlope: {x: 0, y: 0, z: 0, w: 0}
        tangentMode: 0
      - serializedVersion: 2
        time: 0.8333332
        value: {x: 0.17364818, y: 0, z: 0, w: 0.9848077}
        inSlope: {x: 0, y: 0, z: 0, w: 0}
        outSlope: {x: 0, y: 0, z: 0, w: 0}
        tangentMode: 0
      - serializedVersion: 2
        time: 1.4833326
        value: {x: 0.17364818, y: 0, z: 0, w: 0.9848077}
        inSlope: {x: 0, y: 0, z: 0, w: 0}
        outSlope: {x: 0, y: 0, z: 0, w: 0}
        tangentMode: 0
      - serializedVersion: 2
        time: 1.4999993
        value: {x: 0.17364818, y: 0, z: 0, w: 0.9848077}
        inSlope: {x: -0.0017850118, y: -0.7733447, z: 0.13636152, w: -0.010124454}
        outSlope: {x: -0.0017850118, y: -0.7733447, z: 0.13636152, w: -0.010124454}
        tangentMode: 0
      - serializedVersion: 2
        time: 1.5333326
        value: {x: 0.1734102, y: -0.0515397, z: 0.00908784, w: 0.9834581}
        inSlope: {x: -0.014273388, y: -1.544636, z: 0.27236098, w: -0.080947354}
        outSlope: {x: -0.014273388, y: -1.544636, z: 0.27236098, w: -0.080947354}
        tangentMode: 0
      - serializedVersion: 2
        time: 1.749999
        value: {x: 0.17034511, y: -0.37612095, z: 0.07055896, w: 0.9080402}
        inSlope: {x: 0.0035172729, y: -1.4174522, z: 0.3141775, w: -0.6121397}
        outSlope: {x: 0.0035172729, y: -1.4174522, z: 0.3141775, w: -0.6121397}
        tangentMode: 0
      - serializedVersion: 2
        time: 1.8999989
        value: {x: 0.09467019, y: -0.58374566, z: 0.068781674, w: 0.8034598}
        inSlope: {x: -0.9947429, y: -1.3373275, z: -0.49692607, w: -0.8128317}
        outSlope: {x: -0.9947429, y: -1.3373275, z: -0.49692607, w: -0.8128317}
        tangentMode: 0
      - serializedVersion: 2
        time: 2
        value: {x: 0, y: -0.70710677, z: 0, w: 0.70710677}
        inSlope: {x: -0.7937524, y: -1.1320019, z: -0.75324005, w: -1.0888141}
        outSlope: {x: -0.7937524, y: -1.1320019, z: -0.75324005, w: -1.0888141}
        tangentMode: 0
      m_PreInfinity: 2
      m_PostInfinity: 2
      m_RotationOrder: 4
    path: GlasBin
  - curve:
      serializedVersion: 2
      m_Curve:
      - serializedVersion: 2
        time: 0
        value: {x: 0.17364818, y: 0, z: 0, w: 0.9848077}
        inSlope: {x: 0, y: 0, z: 0, w: 0}
        outSlope: {x: 0, y: 0, z: 0, w: 0}
        tangentMode: 0
      - serializedVersion: 2
        time: 0.8333332
        value: {x: 0.17364818, y: 0, z: 0, w: 0.9848077}
        inSlope: {x: 0, y: 0, z: 0, w: 0}
        outSlope: {x: 0, y: 0, z: 0, w: 0}
        tangentMode: 0
      - serializedVersion: 2
        time: 1.4833326
        value: {x: 0.17364818, y: 0, z: 0, w: 0.9848077}
        inSlope: {x: 0, y: 0, z: 0, w: 0}
        outSlope: {x: 0, y: 0, z: 0, w: 0}
        tangentMode: 0
      - serializedVersion: 2
        time: 1.4999993
        value: {x: 0.17364818, y: 0, z: 0, w: 0.9848077}
        inSlope: {x: -0.0017850118, y: -0.7733447, z: 0.13636152, w: -0.010124454}
        outSlope: {x: -0.0017850118, y: -0.7733447, z: 0.13636152, w: -0.010124454}
        tangentMode: 0
      - serializedVersion: 2
        time: 1.5333326
        value: {x: 0.1734102, y: -0.0515397, z: 0.00908784, w: 0.9834581}
        inSlope: {x: -0.014273388, y: -1.544636, z: 0.27236098, w: -0.080947354}
        outSlope: {x: -0.014273388, y: -1.544636, z: 0.27236098, w: -0.080947354}
        tangentMode: 0
      - serializedVersion: 2
        time: 1.749999
        value: {x: 0.17034511, y: -0.37612095, z: 0.07055896, w: 0.9080402}
        inSlope: {x: 0.0035172729, y: -1.4174522, z: 0.3141775, w: -0.6121397}
        outSlope: {x: 0.0035172729, y: -1.4174522, z: 0.3141775, w: -0.6121397}
        tangentMode: 0
      - serializedVersion: 2
        time: 1.8999989
        value: {x: 0.09467019, y: -0.58374566, z: 0.068781674, w: 0.8034598}
        inSlope: {x: -0.9947429, y: -1.3373275, z: -0.49692607, w: -0.8128317}
        outSlope: {x: -0.9947429, y: -1.3373275, z: -0.49692607, w: -0.8128317}
        tangentMode: 0
      - serializedVersion: 2
        time: 2
        value: {x: 0, y: -0.70710677, z: 0, w: 0.70710677}
        inSlope: {x: -0.7937524, y: -1.1320019, z: -0.75324005, w: -1.0888141}
        outSlope: {x: -0.7937524, y: -1.1320019, z: -0.75324005, w: -1.0888141}
        tangentMode: 0
      m_PreInfinity: 2
      m_PostInfinity: 2
      m_RotationOrder: 4
    path: PaperBin
  - curve:
      serializedVersion: 2
      m_Curve:
      - serializedVersion: 2
        time: 0
        value: {x: 0.17364818, y: 0, z: 0, w: 0.9848077}
        inSlope: {x: 0, y: 0, z: 0, w: 0}
        outSlope: {x: 0, y: 0, z: 0, w: 0}
        tangentMode: 0
      - serializedVersion: 2
        time: 0.8333332
        value: {x: 0.17364818, y: 0, z: 0, w: 0.9848077}
        inSlope: {x: 0, y: 0, z: 0, w: 0}
        outSlope: {x: 0, y: 0, z: 0, w: 0}
        tangentMode: 0
      - serializedVersion: 2
        time: 1.4833326
        value: {x: 0.17364818, y: 0, z: 0, w: 0.9848077}
        inSlope: {x: 0, y: 0, z: 0, w: 0}
        outSlope: {x: 0, y: 0, z: 0, w: 0}
        tangentMode: 0
      - serializedVersion: 2
        time: 1.4999993
        value: {x: 0.17364818, y: 0, z: 0, w: 0.9848077}
        inSlope: {x: -0.0010800372, y: -0.60151744, z: 0.10606376, w: -0.0061243833}
        outSlope: {x: -0.0010800372, y: -0.60151744, z: 0.10606376, w: -0.0061243833}
        tangentMode: 0
      - serializedVersion: 2
        time: 1.5333326
        value: {x: 0.1735042, y: -0.04009367, z: 0.007069596, w: 0.9839912}
        inSlope: {x: -0.008636274, y: -1.202089, z: 0.21196073, w: -0.048980758}
        outSlope: {x: -0.008636274, y: -1.202089, z: 0.21196073, w: -0.048980758}
        tangentMode: 0
      - serializedVersion: 2
        time: 1.749999
        value: {x: 0.1758465, y: -0.29554912, z: 0.055443965, w: 0.93736583}
        inSlope: {x: 0.05020519, y: -1.1382706, z: 0.2514581, w: -0.38312888}
        outSlope: {x: 0.05020519, y: -1.1382706, z: 0.2514581, w: -0.38312888}
        tangentMode: 0
      - serializedVersion: 2
        time: 1.8999989
        value: {x: 0.1033214, y: -0.466245, z: 0.05493679, w: 0.87688214}
        inSlope: {x: -1.0352972, y: -1.1314633, z: -0.38955534, w: -0.45609218}
        outSlope: {x: -1.0352972, y: -1.1314633, z: -0.38955534, w: -0.45609218}
        tangentMode: 0
      - serializedVersion: 2
        time: 2
        value: {x: 0, y: -0.57357645, z: 0, w: 0.81915206}
        inSlope: {x: -0.9089628, y: -1.0134029, z: -0.6092619, w: -0.68222713}
        outSlope: {x: -0.9089628, y: -1.0134029, z: -0.6092619, w: -0.68222713}
        tangentMode: 0
      m_PreInfinity: 2
      m_PostInfinity: 2
      m_RotationOrder: 4
    path: PlasticBin
  m_CompressedRotationCurves: []
  m_EulerCurves: []
  m_PositionCurves:
  - curve:
      serializedVersion: 2
      m_Curve:
      - serializedVersion: 2
        time: 0
        value: {x: 3.5, y: 0, z: 0}
        inSlope: {x: -2.1266665, y: 0, z: 0}
        outSlope: {x: -2.1266665, y: 0, z: 0}
        tangentMode: 0
      - serializedVersion: 2
        time: 0.5
        value: {x: 2.4366667, y: 0, z: 0}
        inSlope: {x: -2.1625695, y: 0, z: 0}
        outSlope: {x: -2.1625695, y: 0, z: 0}
        tangentMode: 0
      - serializedVersion: 2
        time: 0.6666667
        value: {x: 2.0702546, y: 0, z: 0}
        inSlope: {x: -2.2140555, y: 0, z: 0}
        outSlope: {x: -2.2140555, y: 0, z: 0}
        tangentMode: 0
      - serializedVersion: 2
        time: 0.8333333
        value: {x: 1.6986482, y: 0, z: 0}
        inSlope: {x: -2.236227, y: 0, z: 0}
        outSlope: {x: -2.236227, y: 0, z: 0}
        tangentMode: 0
      - serializedVersion: 2
        time: 1
        value: {x: 1.3248456, y: 0, z: 0}
        inSlope: {x: -2.3579793, y: 0, z: 0}
        outSlope: {x: -2.3579793, y: 0, z: 0}
        tangentMode: 0
      - serializedVersion: 2
        time: 1.1666666
        value: {x: 0.9126551, y: 0, z: 0}
        inSlope: {x: -2.3265028, y: 0, z: 0}
        outSlope: {x: -2.3265028, y: 0, z: 0}
        tangentMode: 0
      - serializedVersion: 2
        time: 1.3333334
        value: {x: 0.54934454, y: 0, z: 0}
        inSlope: {x: -2.1379652, y: 0, z: 0}
        outSlope: {x: -2.1379652, y: 0, z: 0}
        tangentMode: 0
      - serializedVersion: 2
        time: 1.5
        value: {x: 0.2, y: 0, z: 0}
        inSlope: {x: -2.096068, y: 0, z: 0}
        outSlope: {x: -2.096068, y: 0, z: 0}
        tangentMode: 0
      m_PreInfinity: 2
      m_PostInfinity: 2
      m_RotationOrder: 4
    path: 
  - curve:
      serializedVersion: 2
      m_Curve:
      - serializedVersion: 2
        time: 0
        value: {x: 5.4611955e-14, y: -0.1, z: 0.8429743}
        inSlope: {x: 0, y: -0.119999975, z: 1.55857e-34}
        outSlope: {x: 0, y: -0.119999975, z: 3.205599e-39}
        tangentMode: 0
      - serializedVersion: 2
        time: 0.083333336
        value: {x: 5.4611955e-14, y: -0.11, z: 0.8429743}
        inSlope: {x: 0, y: 0.0000000037252903, z: 0}
        outSlope: {x: 0, y: 0.0000000037252903, z: 0}
        tangentMode: 0
      - serializedVersion: 2
        time: 0.25
        value: {x: 5.4611955e-14, y: -0.09, z: 0.8429743}
        inSlope: {x: 0, y: 0, z: 0}
        outSlope: {x: 0, y: 0, z: 0}
        tangentMode: 0
      - serializedVersion: 2
        time: 0.41666666
        value: {x: 5.4611955e-14, y: -0.11, z: 0.8429743}
        inSlope: {x: 0, y: 0, z: 0}
        outSlope: {x: 0, y: 0, z: 0}
        tangentMode: 0
      - serializedVersion: 2
        time: 0.5833333
        value: {x: 5.4611955e-14, y: -0.09, z: 0.8429743}
        inSlope: {x: 0, y: 0.000000011175871, z: 0}
        outSlope: {x: 0, y: 0.000000011175871, z: 0}
        tangentMode: 0
      - serializedVersion: 2
        time: 0.75
        value: {x: 5.4611955e-14, y: -0.11, z: 0.8429743}
        inSlope: {x: 0, y: 0, z: 0}
        outSlope: {x: 0, y: 0, z: 0}
        tangentMode: 0
      - serializedVersion: 2
        time: 0.9166667
        value: {x: 5.4611955e-14, y: -0.09, z: 0.84297425}
        inSlope: {x: 0, y: 0, z: 0}
        outSlope: {x: 0, y: 0, z: 0}
        tangentMode: 0
      - serializedVersion: 2
        time: 1.25
        value: {x: 5.4611955e-14, y: -0.09, z: 0.8429743}
        inSlope: {x: 0, y: 0, z: 0}
        outSlope: {x: 0, y: 0, z: 0}
        tangentMode: 0
      - serializedVersion: 2
        time: 1.4166666
        value: {x: 5.4611955e-14, y: -0.11, z: 0.8429743}
        inSlope: {x: 0, y: -0.000000044703484, z: 0}
        outSlope: {x: 0, y: -0.000000044703484, z: 0}
        tangentMode: 0
      - serializedVersion: 2
        time: 1.5
        value: {x: 5.4611955e-14, y: -0.1, z: 0.8429743}
        inSlope: {x: 0, y: 0.119999915, z: 0}
        outSlope: {x: 0, y: 0.119999915, z: 0}
        tangentMode: 0
      - serializedVersion: 2
        time: 1.8666667
        value: {x: 5.4611955e-14, y: -0.1, z: 0.8429743}
        inSlope: {x: 0, y: 0, z: 1.55857e-34}
        outSlope: {x: 0, y: 0, z: 3.205599e-39}
        tangentMode: 0
      m_PreInfinity: 2
      m_PostInfinity: 2
      m_RotationOrder: 4
    path: PlasticBin
  - curve:
      serializedVersion: 2
      m_Curve:
      - serializedVersion: 2
        time: 0
        value: {x: 5.8712974e-15, y: 0, z: 0.16315581}
        inSlope: {x: 0, y: 0.06, z: 1.3762546e-34}
        outSlope: {x: 0, y: 0.06, z: 3.205599e-39}
        tangentMode: 0
      - serializedVersion: 2
        time: 0.16666667
        value: {x: 5.8712974e-15, y: 0.01, z: 0.1631558}
        inSlope: {x: 0, y: -0.03, z: 0}
        outSlope: {x: 0, y: -0.03, z: 0}
        tangentMode: 0
      - serializedVersion: 2
        time: 0.33333334
        value: {x: 5.8712974e-15, y: -0.01, z: 0.1631558}
        inSlope: {x: 0, y: 0.0000000037252903, z: 0.000000012417634}
        outSlope: {x: 0, y: 0.0000000037252903, z: 0.000000012417634}
        tangentMode: 0
      - serializedVersion: 2
        time: 0.5
        value: {x: 5.8712974e-15, y: 0.01, z: 0.1631558}
        inSlope: {x: 0, y: 0.000000011175871, z: 0}
        outSlope: {x: 0, y: 0.000000011175871, z: 0}
        tangentMode: 0
      - serializedVersion: 2
        time: 0.6666667
        value: {x: 5.8712974e-15, y: -0.01, z: 0.1631558}
        inSlope: {x: 0, y: 0.000000022351742, z: 0.000000017193647}
        outSlope: {x: 0, y: 0.000000022351742, z: 0.000000017193647}
        tangentMode: 0
      - serializedVersion: 2
        time: 0.8333333
        value: {x: 5.8712974e-15, y: 0.01, z: 0.1631558}
        inSlope: {x: 0, y: 0.000000022351742, z: 0.000000021287374}
        outSlope: {x: 0, y: 0.000000022351742, z: 0.000000021287374}
        tangentMode: 0
      - serializedVersion: 2
        time: 1
        value: {x: 5.8712974e-15, y: -0.01, z: 0.1631558}
        inSlope: {x: 0, y: 0.000000022351742, z: 0.00000005587935}
        outSlope: {x: 0, y: 0.000000022351742, z: 0.00000005587935}
        tangentMode: 0
      - serializedVersion: 2
        time: 1.1666666
        value: {x: 5.8712974e-15, y: 0.01, z: 0.1631558}
        inSlope: {x: 0, y: 0.000000044703484, z: 0.00000004063953}
        outSlope: {x: 0, y: 0.000000044703484, z: 0.00000004063953}
        tangentMode: 0
      - serializedVersion: 2
        time: 1.3333334
        value: {x: 5.8712974e-15, y: -0.01, z: 0.16315581}
        inSlope: {x: 0, y: -0.029999962, z: 0}
        outSlope: {x: 0, y: -0.029999962, z: 0}
        tangentMode: 0
      - serializedVersion: 2
        time: 1.3666667
        value: {x: 5.8712974e-15, y: -0.009919999, z: 0.16315581}
        inSlope: {x: 0, y: 0.031199977, z: 1.3762546e-34}
        outSlope: {x: 0, y: 0.031199977, z: 3.205599e-39}
        tangentMode: 0
      - serializedVersion: 2
        time: 1.5
        value: {x: 5.8712974e-15, y: 0, z: 0.16315581}
        inSlope: {x: 0, y: 0.060000014, z: 0}
        outSlope: {x: 0, y: 0.060000014, z: 0}
        tangentMode: 0
      m_PreInfinity: 2
      m_PostInfinity: 2
      m_RotationOrder: 4
    path: PaperBin
  - curve:
      serializedVersion: 2
      m_Curve:
      - serializedVersion: 2
        time: 0
        value: {x: 6.720212e-15, y: 0, z: -0.5271073}
        inSlope: {x: 0, y: 0.12, z: 0}
        outSlope: {x: 0, y: 0.12, z: 0}
        tangentMode: 0
      - serializedVersion: 2
        time: 0.083333336
        value: {x: 6.720212e-15, y: 0.01, z: -0.5271073}
        inSlope: {x: 0, y: -0.0000000037252903, z: 0}
        outSlope: {x: 0, y: -0.0000000037252903, z: 0}
        tangentMode: 0
      - serializedVersion: 2
        time: 0.25
        value: {x: 6.720212e-15, y: -0.01, z: -0.52710724}
        inSlope: {x: 0, y: 0, z: 0}
        outSlope: {x: 0, y: 0, z: 0}
        tangentMode: 0
      - serializedVersion: 2
        time: 0.41666666
        value: {x: 6.720212e-15, y: 0.01, z: -0.52710724}
        inSlope: {x: 0, y: 0, z: -0.000000049670536}
        outSlope: {x: 0, y: 0, z: -0.000000049670536}
        tangentMode: 0
      - serializedVersion: 2
        time: 0.75
        value: {x: 6.720212e-15, y: 0.01, z: -0.52710724}
        inSlope: {x: 0, y: 0, z: -0.00000005768191}
        outSlope: {x: 0, y: 0, z: -0.00000005768191}
        tangentMode: 0
      - serializedVersion: 2
        time: 0.9166667
        value: {x: 6.720212e-15, y: -0.01, z: -0.52710724}
        inSlope: {x: 0, y: 0, z: -0.00000008514949}
        outSlope: {x: 0, y: 0, z: -0.00000008514949}
        tangentMode: 0
      - serializedVersion: 2
        time: 1.0833334
        value: {x: 6.720212e-15, y: 0.01, z: -0.52710724}
        inSlope: {x: 0, y: -0.000000022351742, z: -0.0000001117587}
        outSlope: {x: 0, y: -0.000000022351742, z: -0.0000001117587}
        tangentMode: 0
      - serializedVersion: 2
        time: 1.25
        value: {x: 6.720212e-15, y: -0.01, z: -0.52710724}
        inSlope: {x: 0, y: 0, z: -0.00000032511625}
        outSlope: {x: 0, y: 0, z: -0.00000032511625}
        tangentMode: 0
      - serializedVersion: 2
        time: 1.4166666
        value: {x: 6.720212e-15, y: 0.01, z: -0.5271073}
        inSlope: {x: 0, y: 0.12000003, z: -0.00000014901158}
        outSlope: {x: 0, y: 0.12000003, z: -0.00000014901158}
        tangentMode: 0
      - serializedVersion: 2
        time: 1.45
        value: {x: 6.720212e-15, y: 0.01, z: -0.5271073}
        inSlope: {x: 0, y: 0, z: 0}
        outSlope: {x: 0, y: 0, z: 0}
        tangentMode: 0
      m_PreInfinity: 2
      m_PostInfinity: 2
      m_RotationOrder: 4
    path: GlasBin
  m_ScaleCurves: []
  m_FloatCurves: []
  m_PPtrCurves: []
  m_SampleRate: 60
  m_WrapMode: 8
  m_Bounds:
    m_Center: {x: 0, y: 0, z: 0}
    m_Extent: {x: 0, y: 0, z: 0}
  m_ClipBindingConstant:
    genericBindings: []
    pptrCurveMapping: []
  m_AnimationClipSettings:
    serializedVersion: 2
    m_AdditiveReferencePoseClip: {fileID: 0}
    m_AdditiveReferencePoseTime: 0
    m_StartTime: 0
    m_StopTime: 2
    m_OrientationOffsetY: 0
    m_Level: 0
    m_CycleOffset: 0
    m_HasAdditiveReferencePose: 0
    m_LoopTime: 0
    m_LoopBlend: 0
    m_LoopBlendOrientation: 0
    m_LoopBlendPositionY: 0
    m_LoopBlendPositionXZ: 0
    m_KeepOriginalOrientation: 0
    m_KeepOriginalPositionY: 1
    m_KeepOriginalPositionXZ: 0
    m_HeightFromFeet: 0
    m_Mirror: 0
  m_EditorCurves:
  - curve:
      serializedVersion: 2
      m_Curve:
      - serializedVersion: 2
        time: 0
        value: 3.5
        inSlope: -2.1266665
        outSlope: -2.1266665
        tangentMode: 34
      - serializedVersion: 2
        time: 0.5
        value: 2.4366667
        inSlope: -2.1625695
        outSlope: -2.1625695
        tangentMode: 34
      - serializedVersion: 2
        time: 0.6666667
        value: 2.0702546
        inSlope: -2.2140555
        outSlope: -2.2140555
        tangentMode: 34
      - serializedVersion: 2
        time: 0.8333333
        value: 1.6986482
        inSlope: -2.236227
        outSlope: -2.236227
        tangentMode: 34
      - serializedVersion: 2
        time: 1
        value: 1.3248456
        inSlope: -2.3579793
        outSlope: -2.3579793
        tangentMode: 34
      - serializedVersion: 2
        time: 1.1666666
        value: 0.9126551
        inSlope: -2.3265028
        outSlope: -2.3265028
        tangentMode: 34
      - serializedVersion: 2
        time: 1.3333334
        value: 0.54934454
        inSlope: -2.1379652
        outSlope: -2.1379652
        tangentMode: 34
      - serializedVersion: 2
        time: 1.5
        value: 0.2
        inSlope: -2.096068
        outSlope: -2.096068
        tangentMode: 34
      m_PreInfinity: 2
      m_PostInfinity: 2
      m_RotationOrder: 4
    attribute: m_LocalPosition.x
    path: 
    classID: 4
    script: {fileID: 0}
  - curve:
      serializedVersion: 2
      m_Curve:
      - serializedVersion: 2
        time: 0
        value: 0
        inSlope: 0
        outSlope: 0
        tangentMode: 34
      - serializedVersion: 2
        time: 0.5
        value: 0
        inSlope: 0
        outSlope: 0
        tangentMode: 34
      - serializedVersion: 2
        time: 0.6666667
        value: 0
        inSlope: 0
        outSlope: 0
        tangentMode: 34
      - serializedVersion: 2
        time: 0.8333333
        value: 0
        inSlope: 0
        outSlope: 0
        tangentMode: 34
      - serializedVersion: 2
        time: 1
        value: 0
        inSlope: 0
        outSlope: 0
        tangentMode: 34
      - serializedVersion: 2
        time: 1.1666666
        value: 0
        inSlope: 0
        outSlope: 0
        tangentMode: 34
      - serializedVersion: 2
        time: 1.3333334
        value: 0
        inSlope: 0
        outSlope: 0
        tangentMode: 34
      - serializedVersion: 2
        time: 1.5
        value: 0
        inSlope: 0
        outSlope: 0
        tangentMode: 34
      m_PreInfinity: 2
      m_PostInfinity: 2
      m_RotationOrder: 4
    attribute: m_LocalPosition.y
    path: 
    classID: 4
    script: {fileID: 0}
  - curve:
      serializedVersion: 2
      m_Curve:
      - serializedVersion: 2
        time: 0
        value: 0
        inSlope: 0
        outSlope: 0
        tangentMode: 0
      - serializedVersion: 2
        time: 0.5
        value: 0
        inSlope: 0
        outSlope: 0
        tangentMode: 0
      - serializedVersion: 2
        time: 0.6666667
        value: 0
        inSlope: 0
        outSlope: 0
        tangentMode: 0
      - serializedVersion: 2
        time: 0.8333333
        value: 0
        inSlope: 0
        outSlope: 0
        tangentMode: 0
      - serializedVersion: 2
        time: 1
        value: 0
        inSlope: 0
        outSlope: 0
        tangentMode: 0
      - serializedVersion: 2
        time: 1.1666666
        value: 0
        inSlope: 0
        outSlope: 0
        tangentMode: 0
      - serializedVersion: 2
        time: 1.3333334
        value: 0
        inSlope: 0
        outSlope: 0
        tangentMode: 0
      - serializedVersion: 2
        time: 1.5
        value: 0
        inSlope: 0
        outSlope: 0
        tangentMode: 0
      m_PreInfinity: 2
      m_PostInfinity: 2
      m_RotationOrder: 4
    attribute: m_LocalPosition.z
    path: 
    classID: 4
    script: {fileID: 0}
  - curve:
      serializedVersion: 2
      m_Curve:
      - serializedVersion: 2
        time: 0
        value: 0.9848077
        inSlope: 0
        outSlope: 0
        tangentMode: 0
      - serializedVersion: 2
        time: 0.8333332
        value: 0.9848077
        inSlope: 0
        outSlope: 0
        tangentMode: 0
      - serializedVersion: 2
        time: 1.4833326
        value: 0.9848077
        inSlope: 0
        outSlope: 0
        tangentMode: 0
      - serializedVersion: 2
        time: 1.4999993
        value: 0.9848077
        inSlope: -0.015122308
        outSlope: -0.015122308
        tangentMode: 0
      - serializedVersion: 2
        time: 1.5333326
        value: 0.9827919
        inSlope: -0.120890856
        outSlope: -0.120890856
        tangentMode: 0
      - serializedVersion: 2
        time: 1.749999
        value: 0.8718039
        inSlope: -0.8917066
        outSlope: -0.8917066
        tangentMode: 0
      - serializedVersion: 2
        time: 1.8999989
        value: 0.7143992
        inSlope: -1.2317467
        outSlope: -1.2317467
        tangentMode: 0
      - serializedVersion: 2
        time: 2
        value: 0.57357645
        inSlope: -1.5487877
        outSlope: -1.5487877
        tangentMode: 0
      m_PreInfinity: 2
      m_PostInfinity: 2
      m_RotationOrder: 4
    attribute: m_LocalRotation.w
    path: FoodBin
    classID: 4
    script: {fileID: 0}
  - curve:
      serializedVersion: 2
      m_Curve:
      - serializedVersion: 2
        time: 0
        value: 0
        inSlope: 0
        outSlope: 0
        tangentMode: 0
      - serializedVersion: 2
        time: 0.8333332
        value: 0
        inSlope: 0
        outSlope: 0
        tangentMode: 0
      - serializedVersion: 2
        time: 1.4833326
        value: 0
        inSlope: 0
        outSlope: 0
        tangentMode: 0
      - serializedVersion: 2
        time: 1.4999993
        value: 0
        inSlope: 0.1666547
        outSlope: 0.1666547
        tangentMode: 0
      - serializedVersion: 2
        time: 1.5333326
        value: 0.011104853
        inSlope: 0.33264136
        outSlope: 0.33264136
        tangentMode: 0
      - serializedVersion: 2
        time: 1.749999
        value: 0.085136965
        inSlope: 0.37021068
        outSlope: 0.37021068
        tangentMode: 0
      - serializedVersion: 2
        time: 1.8999989
        value: 0.0812878
        inSlope: -0.60121083
        outSlope: -0.60121083
        tangentMode: 0
      - serializedVersion: 2
        time: 2
        value: 0
        inSlope: -0.8758283
        outSlope: -0.8758283
        tangentMode: 0
      m_PreInfinity: 2
      m_PostInfinity: 2
      m_RotationOrder: 4
    attribute: m_LocalRotation.z
    path: FoodBin
    classID: 4
    script: {fileID: 0}
  - curve:
      serializedVersion: 2
      m_Curve:
      - serializedVersion: 2
        time: 0
        value: 0
        inSlope: 0
        outSlope: 0
        tangentMode: 0
      - serializedVersion: 2
        time: 0.8333332
        value: 0
        inSlope: 0
        outSlope: 0
        tangentMode: 0
      - serializedVersion: 2
        time: 1.4833326
        value: 0
        inSlope: 0
        outSlope: 0
        tangentMode: 0
      - serializedVersion: 2
        time: 1.4999993
        value: 0
        inSlope: -0.9451457
        outSlope: -0.9451457
        tangentMode: 0
      - serializedVersion: 2
        time: 1.5333326
        value: -0.06297875
        inSlope: -1.886503
        outSlope: -1.886503
        tangentMode: 0
      - serializedVersion: 2
        time: 1.749999
        value: -0.45383036
        inSlope: -1.6629219
        outSlope: -1.6629219
        tangentMode: 0
      - serializedVersion: 2
        time: 1.8999989
        value: -0.68988436
        inSlope: -1.460416
        outSlope: -1.460416
        tangentMode: 0
      - serializedVersion: 2
        time: 2
        value: -0.81915206
        inSlope: -1.1341511
        outSlope: -1.1341511
        tangentMode: 0
      m_PreInfinity: 2
      m_PostInfinity: 2
      m_RotationOrder: 4
    attribute: m_LocalRotation.y
    path: FoodBin
    classID: 4
    script: {fileID: 0}
  - curve:
      serializedVersion: 2
      m_Curve:
      - serializedVersion: 2
        time: 0
        value: 0.17364818
        inSlope: 0
        outSlope: 0
        tangentMode: 0
      - serializedVersion: 2
        time: 0.8333332
        value: 0.17364818
        inSlope: 0
        outSlope: 0
        tangentMode: 0
      - serializedVersion: 2
        time: 1.4833326
        value: 0.17364818
        inSlope: 0
        outSlope: 0
        tangentMode: 0
      - serializedVersion: 2
        time: 1.4999993
        value: 0.17364818
        inSlope: -0.0026661183
        outSlope: -0.0026661183
        tangentMode: 0
      - serializedVersion: 2
        time: 1.5333326
        value: 0.17329273
        inSlope: -0.02131643
        outSlope: -0.02131643
        tangentMode: 0
      - serializedVersion: 2
        time: 1.749999
        value: 0.1635473
        inSlope: -0.05353292
        outSlope: -0.05353292
        tangentMode: 0
      - serializedVersion: 2
        time: 1.8999989
        value: 0.08417635
        inSlope: -0.94395965
        outSlope: -0.94395965
        tangentMode: 0
      - serializedVersion: 2
        time: 2
        value: 0
        inSlope: -0.65600145
        outSlope: -0.65600145
        tangentMode: 0
      m_PreInfinity: 2
      m_PostInfinity: 2
      m_RotationOrder: 4
    attribute: m_LocalRotation.x
    path: FoodBin
    classID: 4
    script: {fileID: 0}
  - curve:
      serializedVersion: 2
      m_Curve:
      - serializedVersion: 2
        time: 0
        value: 0.9848077
        inSlope: 0
        outSlope: 0
        tangentMode: 0
      - serializedVersion: 2
        time: 0.8333332
        value: 0.9848077
        inSlope: 0
        outSlope: 0
        tangentMode: 0
      - serializedVersion: 2
        time: 1.4833326
        value: 0.9848077
        inSlope: 0
        outSlope: 0
        tangentMode: 0
      - serializedVersion: 2
        time: 1.4999993
        value: 0.9848077
        inSlope: -0.010124454
        outSlope: -0.010124454
        tangentMode: 0
      - serializedVersion: 2
        time: 1.5333326
        value: 0.9834581
        inSlope: -0.080947354
        outSlope: -0.080947354
        tangentMode: 0
      - serializedVersion: 2
        time: 1.749999
        value: 0.9080402
        inSlope: -0.6121397
        outSlope: -0.6121397
        tangentMode: 0
      - serializedVersion: 2
        time: 1.8999989
        value: 0.8034598
        inSlope: -0.8128317
        outSlope: -0.8128317
        tangentMode: 0
      - serializedVersion: 2
        time: 2
        value: 0.70710677
        inSlope: -1.0888141
        outSlope: -1.0888141
        tangentMode: 0
      m_PreInfinity: 2
      m_PostInfinity: 2
      m_RotationOrder: 4
    attribute: m_LocalRotation.w
    path: GlasBin
    classID: 4
    script: {fileID: 0}
  - curve:
      serializedVersion: 2
      m_Curve:
      - serializedVersion: 2
        time: 0
        value: 0
        inSlope: 0
        outSlope: 0
        tangentMode: 0
      - serializedVersion: 2
        time: 0.8333332
        value: 0
        inSlope: 0
        outSlope: 0
        tangentMode: 0
      - serializedVersion: 2
        time: 1.4833326
        value: 0
        inSlope: 0
        outSlope: 0
        tangentMode: 0
      - serializedVersion: 2
        time: 1.4999993
        value: 0
        inSlope: 0.13636152
        outSlope: 0.13636152
        tangentMode: 0
      - serializedVersion: 2
        time: 1.5333326
        value: 0.00908784
        inSlope: 0.27236098
        outSlope: 0.27236098
        tangentMode: 0
      - serializedVersion: 2
        time: 1.749999
        value: 0.07055896
        inSlope: 0.3141775
        outSlope: 0.3141775
        tangentMode: 0
      - serializedVersion: 2
        time: 1.8999989
        value: 0.068781674
        inSlope: -0.49692607
        outSlope: -0.49692607
        tangentMode: 0
      - serializedVersion: 2
        time: 2
        value: 0
        inSlope: -0.75324005
        outSlope: -0.75324005
        tangentMode: 0
      m_PreInfinity: 2
      m_PostInfinity: 2
      m_RotationOrder: 4
    attribute: m_LocalRotation.z
    path: GlasBin
    classID: 4
    script: {fileID: 0}
  - curve:
      serializedVersion: 2
      m_Curve:
      - serializedVersion: 2
        time: 0
        value: 0
        inSlope: 0
        outSlope: 0
        tangentMode: 0
      - serializedVersion: 2
        time: 0.8333332
        value: 0
        inSlope: 0
        outSlope: 0
        tangentMode: 0
      - serializedVersion: 2
        time: 1.4833326
        value: 0
        inSlope: 0
        outSlope: 0
        tangentMode: 0
      - serializedVersion: 2
        time: 1.4999993
        value: 0
        inSlope: -0.7733447
        outSlope: -0.7733447
        tangentMode: 0
      - serializedVersion: 2
        time: 1.5333326
        value: -0.0515397
        inSlope: -1.544636
        outSlope: -1.544636
        tangentMode: 0
      - serializedVersion: 2
        time: 1.749999
        value: -0.37612095
        inSlope: -1.4174522
        outSlope: -1.4174522
        tangentMode: 0
      - serializedVersion: 2
        time: 1.8999989
        value: -0.58374566
        inSlope: -1.3373275
        outSlope: -1.3373275
        tangentMode: 0
      - serializedVersion: 2
        time: 2
        value: -0.70710677
        inSlope: -1.1320019
        outSlope: -1.1320019
        tangentMode: 0
      m_PreInfinity: 2
      m_PostInfinity: 2
      m_RotationOrder: 4
    attribute: m_LocalRotation.y
    path: GlasBin
    classID: 4
    script: {fileID: 0}
  - curve:
      serializedVersion: 2
      m_Curve:
      - serializedVersion: 2
        time: 0
        value: 0.17364818
        inSlope: 0
        outSlope: 0
        tangentMode: 0
      - serializedVersion: 2
        time: 0.8333332
        value: 0.17364818
        inSlope: 0
        outSlope: 0
        tangentMode: 0
      - serializedVersion: 2
        time: 1.4833326
        value: 0.17364818
        inSlope: 0
        outSlope: 0
        tangentMode: 0
      - serializedVersion: 2
        time: 1.4999993
        value: 0.17364818
        inSlope: -0.0017850118
        outSlope: -0.0017850118
        tangentMode: 0
      - serializedVersion: 2
        time: 1.5333326
        value: 0.1734102
        inSlope: -0.014273388
        outSlope: -0.014273388
        tangentMode: 0
      - serializedVersion: 2
        time: 1.749999
        value: 0.17034511
        inSlope: 0.0035172729
        outSlope: 0.0035172729
        tangentMode: 0
      - serializedVersion: 2
        time: 1.8999989
        value: 0.09467019
        inSlope: -0.9947429
        outSlope: -0.9947429
        tangentMode: 0
      - serializedVersion: 2
        time: 2
        value: 0
        inSlope: -0.7937524
        outSlope: -0.7937524
        tangentMode: 0
      m_PreInfinity: 2
      m_PostInfinity: 2
      m_RotationOrder: 4
    attribute: m_LocalRotation.x
    path: GlasBin
    classID: 4
    script: {fileID: 0}
  - curve:
      serializedVersion: 2
      m_Curve:
      - serializedVersion: 2
        time: 1.8666667
        value: 0.8429743
        inSlope: 1.55857e-34
        outSlope: 3.205599e-39
        tangentMode: 34
      m_PreInfinity: 2
      m_PostInfinity: 2
      m_RotationOrder: 4
    attribute: m_LocalPosition.z
    path: PlasticBin
    classID: 4
    script: {fileID: 0}
  - curve:
      serializedVersion: 2
      m_Curve:
      - serializedVersion: 2
        time: 0
        value: -0.1
        inSlope: -0.119999975
        outSlope: -0.119999975
        tangentMode: 34
      - serializedVersion: 2
        time: 0.083333336
        value: -0.11
        inSlope: 0.0000000037252903
        outSlope: 0.0000000037252903
        tangentMode: 34
      - serializedVersion: 2
        time: 0.25
        value: -0.09
        inSlope: 0
        outSlope: 0
        tangentMode: 34
      - serializedVersion: 2
        time: 0.41666666
        value: -0.11
        inSlope: 0
        outSlope: 0
        tangentMode: 34
      - serializedVersion: 2
        time: 0.5833333
        value: -0.09
        inSlope: 0.000000011175871
        outSlope: 0.000000011175871
        tangentMode: 34
      - serializedVersion: 2
        time: 0.75
        value: -0.11
        inSlope: 0
        outSlope: 0
        tangentMode: 34
      - serializedVersion: 2
        time: 0.9166667
        value: -0.09
        inSlope: 0
        outSlope: 0
        tangentMode: 0
      - serializedVersion: 2
        time: 1.25
        value: -0.09
        inSlope: 0
        outSlope: 0
        tangentMode: 0
      - serializedVersion: 2
        time: 1.4166666
        value: -0.11
        inSlope: -0.000000044703484
        outSlope: -0.000000044703484
        tangentMode: 34
      - serializedVersion: 2
        time: 1.5
        value: -0.1
        inSlope: 0.119999915
        outSlope: 0.119999915
        tangentMode: 34
      m_PreInfinity: 2
      m_PostInfinity: 2
      m_RotationOrder: 4
    attribute: m_LocalPosition.y
    path: PlasticBin
    classID: 4
    script: {fileID: 0}
  - curve:
      serializedVersion: 2
      m_Curve:
      - serializedVersion: 2
        time: 1.8666667
        value: 5.4611955e-14
        inSlope: 1.3458203e-34
        outSlope: 3.205599e-39
        tangentMode: 34
      m_PreInfinity: 2
      m_PostInfinity: 2
      m_RotationOrder: 4
    attribute: m_LocalPosition.x
    path: PlasticBin
    classID: 4
    script: {fileID: 0}
  - curve:
      serializedVersion: 2
      m_Curve:
      - serializedVersion: 2
        time: 1.3666667
        value: 0.16315581
        inSlope: 1.3762546e-34
        outSlope: 3.205599e-39
        tangentMode: 34
      m_PreInfinity: 2
      m_PostInfinity: 2
      m_RotationOrder: 4
    attribute: m_LocalPosition.z
    path: PaperBin
    classID: 4
    script: {fileID: 0}
  - curve:
      serializedVersion: 2
      m_Curve:
      - serializedVersion: 2
        time: 0
        value: 0.9848077
        inSlope: 0
        outSlope: 0
        tangentMode: 0
      - serializedVersion: 2
        time: 0.8333332
        value: 0.9848077
        inSlope: 0
        outSlope: 0
        tangentMode: 0
      - serializedVersion: 2
        time: 1.4833326
        value: 0.9848077
        inSlope: 0
        outSlope: 0
        tangentMode: 0
      - serializedVersion: 2
        time: 1.4999993
        value: 0.9848077
        inSlope: -0.010124454
        outSlope: -0.010124454
        tangentMode: 0
      - serializedVersion: 2
        time: 1.5333326
        value: 0.9834581
        inSlope: -0.080947354
        outSlope: -0.080947354
        tangentMode: 0
      - serializedVersion: 2
        time: 1.749999
        value: 0.9080402
        inSlope: -0.6121397
        outSlope: -0.6121397
        tangentMode: 0
      - serializedVersion: 2
        time: 1.8999989
        value: 0.8034598
        inSlope: -0.8128317
        outSlope: -0.8128317
        tangentMode: 0
      - serializedVersion: 2
        time: 2
        value: 0.70710677
        inSlope: -1.0888141
        outSlope: -1.0888141
        tangentMode: 0
      m_PreInfinity: 2
      m_PostInfinity: 2
      m_RotationOrder: 4
    attribute: m_LocalRotation.w
    path: PaperBin
    classID: 4
    script: {fileID: 0}
  - curve:
      serializedVersion: 2
      m_Curve:
      - serializedVersion: 2
        time: 0
        value: 0
        inSlope: 0
        outSlope: 0
        tangentMode: 0
      - serializedVersion: 2
        time: 0.8333332
        value: 0
        inSlope: 0
        outSlope: 0
        tangentMode: 0
      - serializedVersion: 2
        time: 1.4833326
        value: 0
        inSlope: 0
        outSlope: 0
        tangentMode: 0
      - serializedVersion: 2
        time: 1.4999993
        value: 0
        inSlope: 0.13636152
        outSlope: 0.13636152
        tangentMode: 0
      - serializedVersion: 2
        time: 1.5333326
        value: 0.00908784
        inSlope: 0.27236098
        outSlope: 0.27236098
        tangentMode: 0
      - serializedVersion: 2
        time: 1.749999
        value: 0.07055896
        inSlope: 0.3141775
        outSlope: 0.3141775
        tangentMode: 0
      - serializedVersion: 2
        time: 1.8999989
        value: 0.068781674
        inSlope: -0.49692607
        outSlope: -0.49692607
        tangentMode: 0
      - serializedVersion: 2
        time: 2
        value: 0
        inSlope: -0.75324005
        outSlope: -0.75324005
        tangentMode: 0
      m_PreInfinity: 2
      m_PostInfinity: 2
      m_RotationOrder: 4
    attribute: m_LocalRotation.z
    path: PaperBin
    classID: 4
    script: {fileID: 0}
  - curve:
      serializedVersion: 2
      m_Curve:
      - serializedVersion: 2
        time: 0
        value: 0
        inSlope: 0
        outSlope: 0
        tangentMode: 0
      - serializedVersion: 2
        time: 0.8333332
        value: 0
        inSlope: 0
        outSlope: 0
        tangentMode: 0
      - serializedVersion: 2
        time: 1.4833326
        value: 0
        inSlope: 0
        outSlope: 0
        tangentMode: 0
      - serializedVersion: 2
        time: 1.4999993
        value: 0
        inSlope: -0.7733447
        outSlope: -0.7733447
        tangentMode: 0
      - serializedVersion: 2
        time: 1.5333326
        value: -0.0515397
        inSlope: -1.544636
        outSlope: -1.544636
        tangentMode: 0
      - serializedVersion: 2
        time: 1.749999
        value: -0.37612095
        inSlope: -1.4174522
        outSlope: -1.4174522
        tangentMode: 0
      - serializedVersion: 2
        time: 1.8999989
        value: -0.58374566
        inSlope: -1.3373275
        outSlope: -1.3373275
        tangentMode: 0
      - serializedVersion: 2
        time: 2
        value: -0.70710677
        inSlope: -1.1320019
        outSlope: -1.1320019
        tangentMode: 0
      m_PreInfinity: 2
      m_PostInfinity: 2
      m_RotationOrder: 4
    attribute: m_LocalRotation.y
    path: PaperBin
    classID: 4
    script: {fileID: 0}
  - curve:
      serializedVersion: 2
      m_Curve:
      - serializedVersion: 2
        time: 0
        value: 0.17364818
        inSlope: 0
        outSlope: 0
        tangentMode: 0
      - serializedVersion: 2
        time: 0.8333332
        value: 0.17364818
        inSlope: 0
        outSlope: 0
        tangentMode: 0
      - serializedVersion: 2
        time: 1.4833326
        value: 0.17364818
        inSlope: 0
        outSlope: 0
        tangentMode: 0
      - serializedVersion: 2
        time: 1.4999993
        value: 0.17364818
        inSlope: -0.0017850118
        outSlope: -0.0017850118
        tangentMode: 0
      - serializedVersion: 2
        time: 1.5333326
        value: 0.1734102
        inSlope: -0.014273388
        outSlope: -0.014273388
        tangentMode: 0
      - serializedVersion: 2
        time: 1.749999
        value: 0.17034511
        inSlope: 0.0035172729
        outSlope: 0.0035172729
        tangentMode: 0
      - serializedVersion: 2
        time: 1.8999989
        value: 0.09467019
        inSlope: -0.9947429
        outSlope: -0.9947429
        tangentMode: 0
      - serializedVersion: 2
        time: 2
        value: 0
        inSlope: -0.7937524
        outSlope: -0.7937524
        tangentMode: 0
      m_PreInfinity: 2
      m_PostInfinity: 2
      m_RotationOrder: 4
    attribute: m_LocalRotation.x
    path: PaperBin
    classID: 4
    script: {fileID: 0}
  - curve:
      serializedVersion: 2
      m_Curve:
      - serializedVersion: 2
        time: 0
        value: 0
        inSlope: 0.06
        outSlope: 0.06
        tangentMode: 34
      - serializedVersion: 2
        time: 0.16666667
        value: 0.01
        inSlope: -0.03
        outSlope: -0.03
        tangentMode: 34
      - serializedVersion: 2
        time: 0.33333334
        value: -0.01
        inSlope: 0.0000000037252903
        outSlope: 0.0000000037252903
        tangentMode: 34
      - serializedVersion: 2
        time: 0.5
        value: 0.01
        inSlope: 0.000000011175871
        outSlope: 0.000000011175871
        tangentMode: 34
      - serializedVersion: 2
        time: 0.6666667
        value: -0.01
        inSlope: 0.000000022351742
        outSlope: 0.000000022351742
        tangentMode: 34
      - serializedVersion: 2
        time: 0.8333333
        value: 0.01
        inSlope: 0.000000022351742
        outSlope: 0.000000022351742
        tangentMode: 34
      - serializedVersion: 2
        time: 1
        value: -0.01
        inSlope: 0.000000022351742
        outSlope: 0.000000022351742
        tangentMode: 34
      - serializedVersion: 2
        time: 1.1666666
        value: 0.01
        inSlope: 0.000000044703484
        outSlope: 0.000000044703484
        tangentMode: 34
      - serializedVersion: 2
        time: 1.3333334
        value: -0.01
        inSlope: -0.029999962
        outSlope: -0.029999962
        tangentMode: 34
      - serializedVersion: 2
        time: 1.5
        value: 0
        inSlope: 0.060000014
        outSlope: 0.060000014
        tangentMode: 34
      m_PreInfinity: 2
      m_PostInfinity: 2
      m_RotationOrder: 4
    attribute: m_LocalPosition.y
    path: PaperBin
    classID: 4
    script: {fileID: 0}
  - curve:
      serializedVersion: 2
      m_Curve:
      - serializedVersion: 2
        time: 1.3666667
        value: 5.8712974e-15
        inSlope: 2.047172e-34
        outSlope: 3.205599e-39
        tangentMode: 34
      m_PreInfinity: 2
      m_PostInfinity: 2
      m_RotationOrder: 4
    attribute: m_LocalPosition.x
    path: PaperBin
    classID: 4
    script: {fileID: 0}
  - curve:
      serializedVersion: 2
      m_Curve:
      - serializedVersion: 2
        time: 1.45
        value: -0.5271073
        inSlope: 0
        outSlope: 0
        tangentMode: 34
      m_PreInfinity: 2
      m_PostInfinity: 2
      m_RotationOrder: 4
    attribute: m_LocalPosition.z
    path: GlasBin
    classID: 4
    script: {fileID: 0}
  - curve:
      serializedVersion: 2
      m_Curve:
      - serializedVersion: 2
        time: 0
        value: 0
        inSlope: 0.12
        outSlope: 0.12
        tangentMode: 34
      - serializedVersion: 2
        time: 0.083333336
        value: 0.01
        inSlope: -0.0000000037252903
        outSlope: -0.0000000037252903
        tangentMode: 34
      - serializedVersion: 2
        time: 0.25
        value: -0.01
        inSlope: 0
        outSlope: 0
        tangentMode: 34
      - serializedVersion: 2
        time: 0.41666666
        value: 0.01
        inSlope: 0
        outSlope: 0
        tangentMode: 0
      - serializedVersion: 2
        time: 0.75
        value: 0.01
        inSlope: 0
        outSlope: 0
        tangentMode: 0
      - serializedVersion: 2
        time: 0.9166667
        value: -0.01
        inSlope: 0
        outSlope: 0
        tangentMode: 34
      - serializedVersion: 2
        time: 1.0833334
        value: 0.01
        inSlope: -0.000000022351742
        outSlope: -0.000000022351742
        tangentMode: 34
      - serializedVersion: 2
        time: 1.25
        value: -0.01
        inSlope: 0
        outSlope: 0
        tangentMode: 34
      - serializedVersion: 2
        time: 1.4166666
        value: 0.01
        inSlope: 0.12000003
        outSlope: 0.12000003
        tangentMode: 34
      m_PreInfinity: 2
      m_PostInfinity: 2
      m_RotationOrder: 4
    attribute: m_LocalPosition.y
    path: GlasBin
    classID: 4
    script: {fileID: 0}
  - curve:
      serializedVersion: 2
      m_Curve:
      - serializedVersion: 2
        time: 1.45
        value: 6.720212e-15
        inSlope: 1.7015014e-34
        outSlope: 3.205599e-39
        tangentMode: 34
      m_PreInfinity: 2
      m_PostInfinity: 2
      m_RotationOrder: 4
    attribute: m_LocalPosition.x
    path: GlasBin
    classID: 4
    script: {fileID: 0}
  - curve:
      serializedVersion: 2
      m_Curve:
      - serializedVersion: 2
        time: 0
        value: 0.17364818
        inSlope: 0
        outSlope: 0
        tangentMode: 0
      - serializedVersion: 2
        time: 0.8333332
        value: 0.17364818
        inSlope: 0
        outSlope: 0
        tangentMode: 0
      - serializedVersion: 2
        time: 1.4833326
        value: 0.17364818
        inSlope: 0
        outSlope: 0
        tangentMode: 0
      - serializedVersion: 2
        time: 1.4999993
        value: 0.17364818
        inSlope: -0.0010800372
        outSlope: -0.0010800372
        tangentMode: 0
      - serializedVersion: 2
        time: 1.5333326
        value: 0.1735042
        inSlope: -0.008636274
        outSlope: -0.008636274
        tangentMode: 0
      - serializedVersion: 2
        time: 1.749999
        value: 0.1758465
        inSlope: 0.05020519
        outSlope: 0.05020519
        tangentMode: 0
      - serializedVersion: 2
        time: 1.8999989
        value: 0.1033214
        inSlope: -1.0352972
        outSlope: -1.0352972
        tangentMode: 0
      - serializedVersion: 2
        time: 2
        value: 0
        inSlope: -0.9089628
        outSlope: -0.9089628
        tangentMode: 0
      m_PreInfinity: 2
      m_PostInfinity: 2
      m_RotationOrder: 4
    attribute: m_LocalRotation.x
    path: PlasticBin
    classID: 4
    script: {fileID: 0}
  - curve:
      serializedVersion: 2
      m_Curve:
      - serializedVersion: 2
        time: 0
        value: 0
        inSlope: 0
        outSlope: 0
        tangentMode: 0
      - serializedVersion: 2
        time: 0.8333332
        value: 0
        inSlope: 0
        outSlope: 0
        tangentMode: 0
      - serializedVersion: 2
        time: 1.4833326
        value: 0
        inSlope: 0
        outSlope: 0
        tangentMode: 0
      - serializedVersion: 2
        time: 1.4999993
        value: 0
        inSlope: -0.60151744
        outSlope: -0.60151744
        tangentMode: 0
      - serializedVersion: 2
        time: 1.5333326
        value: -0.04009367
        inSlope: -1.202089
        outSlope: -1.202089
        tangentMode: 0
      - serializedVersion: 2
        time: 1.749999
        value: -0.29554912
        inSlope: -1.1382706
        outSlope: -1.1382706
        tangentMode: 0
      - serializedVersion: 2
        time: 1.8999989
        value: -0.466245
        inSlope: -1.1314633
        outSlope: -1.1314633
        tangentMode: 0
      - serializedVersion: 2
        time: 2
        value: -0.57357645
        inSlope: -1.0134029
        outSlope: -1.0134029
        tangentMode: 0
      m_PreInfinity: 2
      m_PostInfinity: 2
      m_RotationOrder: 4
    attribute: m_LocalRotation.y
    path: PlasticBin
    classID: 4
    script: {fileID: 0}
  - curve:
      serializedVersion: 2
      m_Curve:
      - serializedVersion: 2
        time: 0
        value: 0
        inSlope: 0
        outSlope: 0
        tangentMode: 0
      - serializedVersion: 2
        time: 0.8333332
        value: 0
        inSlope: 0
        outSlope: 0
        tangentMode: 0
      - serializedVersion: 2
        time: 1.4833326
        value: 0
        inSlope: 0
        outSlope: 0
        tangentMode: 0
      - serializedVersion: 2
        time: 1.4999993
        value: 0
        inSlope: 0.10606376
        outSlope: 0.10606376
        tangentMode: 0
      - serializedVersion: 2
        time: 1.5333326
        value: 0.007069596
        inSlope: 0.21196073
        outSlope: 0.21196073
        tangentMode: 0
      - serializedVersion: 2
        time: 1.749999
        value: 0.055443965
        inSlope: 0.2514581
        outSlope: 0.2514581
        tangentMode: 0
      - serializedVersion: 2
        time: 1.8999989
        value: 0.05493679
        inSlope: -0.38955534
        outSlope: -0.38955534
        tangentMode: 0
      - serializedVersion: 2
        time: 2
        value: 0
        inSlope: -0.6092619
        outSlope: -0.6092619
        tangentMode: 0
      m_PreInfinity: 2
      m_PostInfinity: 2
      m_RotationOrder: 4
    attribute: m_LocalRotation.z
    path: PlasticBin
    classID: 4
    script: {fileID: 0}
  - curve:
      serializedVersion: 2
      m_Curve:
      - serializedVersion: 2
        time: 0
        value: 0.9848077
        inSlope: 0
        outSlope: 0
        tangentMode: 0
      - serializedVersion: 2
        time: 0.8333332
        value: 0.9848077
        inSlope: 0
        outSlope: 0
        tangentMode: 0
      - serializedVersion: 2
        time: 1.4833326
        value: 0.9848077
        inSlope: 0
        outSlope: 0
        tangentMode: 0
      - serializedVersion: 2
        time: 1.4999993
        value: 0.9848077
        inSlope: -0.0061243833
        outSlope: -0.0061243833
        tangentMode: 0
      - serializedVersion: 2
        time: 1.5333326
        value: 0.9839912
        inSlope: -0.048980758
        outSlope: -0.048980758
        tangentMode: 0
      - serializedVersion: 2
        time: 1.749999
        value: 0.93736583
        inSlope: -0.38312888
        outSlope: -0.38312888
        tangentMode: 0
      - serializedVersion: 2
        time: 1.8999989
        value: 0.87688214
        inSlope: -0.45609218
        outSlope: -0.45609218
        tangentMode: 0
      - serializedVersion: 2
        time: 2
        value: 0.81915206
        inSlope: -0.68222713
        outSlope: -0.68222713
        tangentMode: 0
      m_PreInfinity: 2
      m_PostInfinity: 2
      m_RotationOrder: 4
    attribute: m_LocalRotation.w
    path: PlasticBin
    classID: 4
    script: {fileID: 0}
  m_EulerEditorCurves:
  - curve:
      serializedVersion: 2
      m_Curve:
      - serializedVersion: 2
        time: 0
        value: 20
        inSlope: 0
        outSlope: 0
        tangentMode: 34
      - serializedVersion: 2
        time: 1.6666666
        value: 20
        inSlope: 0
        outSlope: 0
        tangentMode: 34
      - serializedVersion: 2
        time: 1.8333334
        value: 20
        inSlope: -60.000015
        outSlope: -60.000015
        tangentMode: 34
      - serializedVersion: 2
        time: 2
        value: 0
        inSlope: -120.00003
        outSlope: -120.00003
        tangentMode: 34
      m_PreInfinity: 2
      m_PostInfinity: 2
      m_RotationOrder: 4
    attribute: localEulerAnglesBaked.x
    path: GlasBin
    classID: 4
    script: {fileID: 0}
  - curve:
      serializedVersion: 2
      m_Curve:
      - serializedVersion: 2
        time: 1.5
        value: 0
        inSlope: -180
        outSlope: -180
        tangentMode: 34
      - serializedVersion: 2
        time: 2
        value: -90
        inSlope: -180
        outSlope: -180
        tangentMode: 34
      m_PreInfinity: 2
      m_PostInfinity: 2
      m_RotationOrder: 4
    attribute: localEulerAnglesBaked.y
    path: GlasBin
    classID: 4
    script: {fileID: 0}
  - curve:
      serializedVersion: 2
      m_Curve:
      - serializedVersion: 2
        time: 0
        value: 0
        inSlope: 2.4376056e-35
        outSlope: 3.205599e-39
        tangentMode: 34
      m_PreInfinity: 2
      m_PostInfinity: 2
      m_RotationOrder: 4
    attribute: localEulerAnglesBaked.z
    path: GlasBin
    classID: 4
    script: {fileID: 0}
  - curve:
      serializedVersion: 2
      m_Curve:
      - serializedVersion: 2
        time: 0
        value: 20
        inSlope: 0
        outSlope: 0
        tangentMode: 34
      - serializedVersion: 2
        time: 1.25
        value: 20
        inSlope: 0
        outSlope: 0
        tangentMode: 34
      - serializedVersion: 2
        time: 1.6666666
        value: 20
        inSlope: 0
        outSlope: 0
        tangentMode: 34
      - serializedVersion: 2
        time: 1.8333334
        value: 20
        inSlope: -60.000015
        outSlope: -60.000015
        tangentMode: 34
      - serializedVersion: 2
        time: 2
        value: 0
        inSlope: -120.00003
        outSlope: -120.00003
        tangentMode: 34
      m_PreInfinity: 2
      m_PostInfinity: 2
      m_RotationOrder: 4
    attribute: localEulerAnglesBaked.x
    path: PaperBin
    classID: 4
    script: {fileID: 0}
  - curve:
      serializedVersion: 2
      m_Curve:
      - serializedVersion: 2
        time: 1.5
        value: 0
        inSlope: -180
        outSlope: -180
        tangentMode: 34
      - serializedVersion: 2
        time: 2
        value: -90
        inSlope: -180
        outSlope: -180
        tangentMode: 34
      m_PreInfinity: 2
      m_PostInfinity: 2
      m_RotationOrder: 4
    attribute: localEulerAnglesBaked.y
    path: PaperBin
    classID: 4
    script: {fileID: 0}
  - curve:
      serializedVersion: 2
      m_Curve:
      - serializedVersion: 2
        time: 1.25
        value: 0
        inSlope: 4.6030143e-35
        outSlope: 3.205599e-39
        tangentMode: 34
      m_PreInfinity: 2
      m_PostInfinity: 2
      m_RotationOrder: 4
    attribute: localEulerAnglesBaked.z
    path: PaperBin
    classID: 4
    script: {fileID: 0}
  - curve:
      serializedVersion: 2
      m_Curve:
      - serializedVersion: 2
        time: 0
        value: 20
        inSlope: 0
        outSlope: 0
        tangentMode: 34
      - serializedVersion: 2
        time: 0.5
        value: 20
        inSlope: 0
        outSlope: 0
        tangentMode: 34
      - serializedVersion: 2
        time: 0.6666667
        value: 20
        inSlope: 0
        outSlope: 0
        tangentMode: 34
      - serializedVersion: 2
        time: 0.8333333
        value: 20
        inSlope: 0
        outSlope: 0
        tangentMode: 34
      - serializedVersion: 2
        time: 1
        value: 20
        inSlope: 0
        outSlope: 0
        tangentMode: 34
      - serializedVersion: 2
        time: 1.6666666
        value: 20
        inSlope: 0
        outSlope: 0
        tangentMode: 34
      - serializedVersion: 2
        time: 1.8333334
        value: 20
        inSlope: -60.000015
        outSlope: -60.000015
        tangentMode: 34
      - serializedVersion: 2
        time: 2
        value: 0
        inSlope: -120.00003
        outSlope: -120.00003
        tangentMode: 34
      m_PreInfinity: 2
      m_PostInfinity: 2
      m_RotationOrder: 4
    attribute: localEulerAnglesBaked.x
    path: FoodBin
    classID: 4
    script: {fileID: 0}
  - curve:
      serializedVersion: 2
      m_Curve:
      - serializedVersion: 2
        time: 1.5
        value: 0
        inSlope: -220
        outSlope: -220
        tangentMode: 34
      - serializedVersion: 2
        time: 2
        value: -110
        inSlope: -220
        outSlope: -220
        tangentMode: 34
      m_PreInfinity: 2
      m_PostInfinity: 2
      m_RotationOrder: 4
    attribute: localEulerAnglesBaked.y
    path: FoodBin
    classID: 4
    script: {fileID: 0}
  - curve:
      serializedVersion: 2
      m_Curve:
      - serializedVersion: 2
        time: 0.5
        value: 0
        inSlope: 0
        outSlope: 0
        tangentMode: 34
      - serializedVersion: 2
        time: 0.6666667
        value: 0
        inSlope: 0
        outSlope: 0
        tangentMode: 34
      - serializedVersion: 2
        time: 0.8333333
        value: 0
        inSlope: 0
        outSlope: 0
        tangentMode: 34
      - serializedVersion: 2
        time: 1
        value: 0
        inSlope: 0
        outSlope: 0
        tangentMode: 34
      - serializedVersion: 2
        time: 1.1666666
        value: 0
        inSlope: 0
        outSlope: 0
        tangentMode: 34
      - serializedVersion: 2
        time: 1.3333334
        value: 0
        inSlope: 0
        outSlope: 0
        tangentMode: 34
      - serializedVersion: 2
        time: 1.5
        value: 0
        inSlope: 0
        outSlope: 0
        tangentMode: 34
      m_PreInfinity: 2
      m_PostInfinity: 2
      m_RotationOrder: 4
    attribute: localEulerAnglesBaked.z
    path: FoodBin
    classID: 4
    script: {fileID: 0}
  - curve:
      serializedVersion: 2
      m_Curve:
      - serializedVersion: 2
        time: 0
        value: 20
        inSlope: 0
        outSlope: 0
        tangentMode: 34
      - serializedVersion: 2
        time: 1.6666666
        value: 20
        inSlope: 0
        outSlope: 0
        tangentMode: 34
      - serializedVersion: 2
        time: 1.8333334
        value: 20
        inSlope: -60.000015
        outSlope: -60.000015
        tangentMode: 34
      - serializedVersion: 2
        time: 2
        value: 0
        inSlope: -120.00003
        outSlope: -120.00003
        tangentMode: 34
      m_PreInfinity: 2
      m_PostInfinity: 2
      m_RotationOrder: 4
    attribute: localEulerAnglesBaked.x
    path: PlasticBin
    classID: 4
    script: {fileID: 0}
  - curve:
      serializedVersion: 2
      m_Curve:
      - serializedVersion: 2
        time: 1.5
        value: 0
        inSlope: -140
        outSlope: -140
        tangentMode: 34
      - serializedVersion: 2
        time: 2
        value: -70
        inSlope: -140
        outSlope: -140
        tangentMode: 34
      m_PreInfinity: 2
      m_PostInfinity: 2
      m_RotationOrder: 4
    attribute: localEulerAnglesBaked.y
    path: PlasticBin
    classID: 4
    script: {fileID: 0}
  - curve:
      serializedVersion: 2
      m_Curve:
      - serializedVersion: 2
        time: 2
        value: 0
        inSlope: 3.205599e-39
        outSlope: 3.205599e-39
        tangentMode: 34
      m_PreInfinity: 2
      m_PostInfinity: 2
      m_RotationOrder: 4
    attribute: localEulerAnglesBaked.z
    path: PlasticBin
    classID: 4
    script: {fileID: 0}
  m_HasGenericRootTransform: 0
  m_HasMotionFloatCurves: 0
  m_GenerateMotionCurves: 0
  m_Events:
  - time: 0.083333336
    functionName: ToggleRollInSound
    data: 
    objectReferenceParameter: {fileID: 0}
    floatParameter: 0
    intParameter: 0
    messageOptions: 0
  - time: 1.5
    functionName: ToggleRollInSound
    data: 
    objectReferenceParameter: {fileID: 0}
    floatParameter: 0
    intParameter: 0
    messageOptions: 0
  - time: 2
    functionName: OpenBin
    data: 
    objectReferenceParameter: {fileID: 0}
    floatParameter: 0
    intParameter: 0
    messageOptions: 0
